Seq	Host	Starttime	JobRuntime	Send	Receive	Exitval	Signal	Command
1	:	1589234238.597	   238.973	0	0	0	0	run_osr baseline_1/baseline_1.xml
2	:	1589234244.709	   243.440	0	0	0	0	run_osr imp_1.00_1/imp_1.00_1.xml
3	:	1589234250.833	   242.029	0	0	0	0	run_osr imp_1.10_1/imp_1.10_1.xml
4	:	1589234256.980	   242.621	0	0	0	0	run_osr imp_1.15_1/imp_1.15_1.xml
5	:	1589234477.686	   241.000	0	0	0	0	run_osr imp_1.20_1/imp_1.20_1.xml
6	:	1589234488.292	   242.820	0	0	0	0	run_osr imp_1.21_1/imp_1.21_1.xml
7	:	1589234494.409	   242.252	0	0	0	0	run_osr imp_1.22_1/imp_1.22_1.xml
8	:	1589234500.524	   242.114	0	0	0	0	run_osr imp_1.23_1/imp_1.23_1.xml
9	:	1589234718.840	   241.012	0	0	0	0	run_osr imp_1.24_1/imp_1.24_1.xml
10	:	1589234731.247	   240.993	0	0	0	0	run_osr imp_1.25_1/imp_1.25_1.xml
11	:	1589234737.373	   240.586	0	0	0	0	run_osr imp_1.26_1/imp_1.26_1.xml
12	:	1589234743.493	   241.101	0	0	0	0	run_osr imp_1.27_1/imp_1.27_1.xml
13	:	1589234959.996	   241.536	0	0	0	0	run_osr imp_1.28_1/imp_1.28_1.xml
14	:	1589234972.386	   240.914	0	0	0	0	run_osr imp_1.29_1/imp_1.29_1.xml
15	:	1589234978.535	   240.143	0	0	0	0	run_osr imp_1.30_1/imp_1.30_1.xml
16	:	1589234984.724	   240.569	0	0	0	0	run_osr imp_1.35_1/imp_1.35_1.xml
18	:	1589235213.449	   230.789	0	0	0	0	run_osr noimp_1.00_1/noimp_1.00_1.xml
19	:	1589235219.557	   231.522	0	0	0	0	run_osr noimp_1.10_1/noimp_1.10_1.xml
17	:	1589235201.683	   250.503	0	0	0	0	run_osr imp_1.40_1/imp_1.40_1.xml
20	:	1589235225.671	   231.497	0	0	0	0	run_osr noimp_1.15_1/noimp_1.15_1.xml
21	:	1589235444.361	   228.457	0	0	0	0	run_osr noimp_1.20_1/noimp_1.20_1.xml
22	:	1589235451.223	   228.154	0	0	0	0	run_osr noimp_1.21_1/noimp_1.21_1.xml
23	:	1589235457.348	   228.743	0	0	0	0	run_osr noimp_1.22_1/noimp_1.22_1.xml
24	:	1589235463.467	   229.691	0	0	0	0	run_osr noimp_1.23_1/noimp_1.23_1.xml
25	:	1589235672.961	   230.638	0	0	0	0	run_osr noimp_1.24_1/noimp_1.24_1.xml
26	:	1589235679.513	   229.629	0	0	0	0	run_osr noimp_1.25_1/noimp_1.25_1.xml
27	:	1589235686.214	   228.676	0	0	0	0	run_osr noimp_1.26_1/noimp_1.26_1.xml
28	:	1589235693.285	   229.159	0	0	0	0	run_osr noimp_1.27_1/noimp_1.27_1.xml
29	:	1589235903.726	   230.559	0	0	0	0	run_osr noimp_1.28_1/noimp_1.28_1.xml
30	:	1589235909.855	   230.082	0	0	0	0	run_osr noimp_1.29_1/noimp_1.29_1.xml
31	:	1589235915.977	   230.703	0	0	0	0	run_osr noimp_1.30_1/noimp_1.30_1.xml
32	:	1589235922.570	   230.341	0	0	0	0	run_osr noimp_1.35_1/noimp_1.35_1.xml
33	:	1589236134.408	   177.052	0	0	0	0	run_osr noimp_1.40_1/noimp_1.40_1.xml
